…
    ## Rows: 1 Columns: 8

    ## ── Column specification ────────────────────────────────────────────────────────
    ## Delimiter: ","
    ## dbl (8): week_1, week_2, week_3, week_4, week_5, week_6, week_7, week_8

    ## 
    ## ℹ Use `spec()` to retrieve the full column specification for this data.
    ## ℹ Specify the column types or set `show_col_types = FALSE` to quiet this message.

``` r
new_data
```

    ## # A tibble: 160 × 4
    ##    arm     id     week observations
    ##    <fct>   <chr> <dbl>        <dbl>
    ##  1 control 01        1         0.2 
    ##  2 control 01        2        -1.31
    ##  3 control 01        3         0.66
    ##  4 control 01        4         1.96
    ##  5 control 01        5         0.23
    ##  6 control 01        6         1.09
    ##  7 control 01        7         0.05
    ##  8 control 01        8         1.94
    ##  9 control 02        1         1.13
    ## 10 control 02        2        -0.88
    ## # … with 150 more rows
…
